# Blender MTL File: 'robofest_linefollower.blend'
# Material Count: 1

newmtl road_pavement_light
Ns 225.000000
Ka 1.000000 1.000000 1.000000
Kd 0.420024 0.420024 0.420024
Ks 0.000000 0.000000 0.000000
Ke 0.000000 0.000000 0.000000
Ni 1.450000
d 1.000000
illum 2
