# Blender MTL File: 'robofest_linefollower.blend'
# Material Count: 4

newmtl traffic_light_glass
Ns 900.000000
Ka 1.000000 1.000000 1.000000
Kd 0.037410 0.037410 0.037410
Ks 0.661765 0.661765 0.661765
Ke 0.000000 0.000000 0.000000
Ni 1.450000
d 1.000000
illum 2

newmtl traffic_light_mat_dark_green
Ns 266.457624
Ka 0.330882 0.330882 0.330882
Kd 0.005471 0.069978 0.040039
Ks 0.000000 0.000000 0.000000
Ke 0.000000 0.000000 0.000000
Ni 1.450000
d 1.000000
illum 3

newmtl traffic_light_mat_dark_grey
Ns 225.000000
Ka 1.000000 1.000000 1.000000
Kd 0.066806 0.066806 0.066806
Ks 0.000000 0.000000 0.000000
Ke 0.000000 0.000000 0.000000
Ni 1.450000
d 1.000000
illum 2

newmtl traffic_light_mat_keyhole
Ns 588.775946
Ka 0.904412 0.904412 0.904412
Kd 0.310813 0.251949 0.131094
Ks 0.661765 0.661765 0.661765
Ke 0.000000 0.000000 0.000000
Ni 1.450000
d 1.000000
illum 3
